<?xml version="1.0" encoding="UTF-8" standalone="no"?>
<!-- Created with Inkscape (http://www.inkscape.org/) -->

<svg
   xmlns:dc="http://purl.org/dc/elements/1.1/"
   xmlns:cc="http://creativecommons.org/ns#"
   xmlns:rdf="http://www.w3.org/1999/02/22-rdf-syntax-ns#"
   xmlns:svg="http://www.w3.org/2000/svg"
   xmlns="http://www.w3.org/2000/svg"
   xmlns:sodipodi="http://sodipodi.sourceforge.net/DTD/sodipodi-0.dtd"
   xmlns:inkscape="http://www.inkscape.org/namespaces/inkscape"
   width="210mm"
   height="297mm"
   viewBox="0 0 210 297"
   version="1.1"
   id="svg8"
   inkscape:version="0.92.2 2405546, 2018-03-11"
   sodipodi:docname="arara2.svg">
  <defs
     id="defs2" />
  <sodipodi:namedview
     id="base"
     pagecolor="#ffffff"
     bordercolor="#666666"
     borderopacity="1.0"
     inkscape:pageopacity="0.0"
     inkscape:pageshadow="2"
     inkscape:zoom="0.175"
     inkscape:cx="852.27289"
     inkscape:cy="709.63202"
     inkscape:document-units="mm"
     inkscape:current-layer="layer1"
     showgrid="false"
     inkscape:window-width="1366"
     inkscape:window-height="746"
     inkscape:window-x="0"
     inkscape:window-y="22"
     inkscape:window-maximized="1"
     inkscape:snap-page="false" />
  <metadata
     id="metadata5">
    <rdf:RDF>
      <cc:Work
         rdf:about="">
        <dc:format>image/svg+xml</dc:format>
        <dc:type
           rdf:resource="http://purl.org/dc/dcmitype/StillImage" />
        <dc:title></dc:title>
      </cc:Work>
    </rdf:RDF>
  </metadata>
  <g
     inkscape:label="Layer 1"
     inkscape:groupmode="layer"
     id="layer1">
    <path
       inkscape:export-ydpi="293.84"
       inkscape:export-xdpi="293.84"
       inkscape:export-filename="/home/siqueira/Pictures/flusp.png"
       sodipodi:nodetypes="ccc"
       inkscape:connector-curvature="0"
       id="path3223"
       d="m 145.80181,177.30369 c -20.11608,-13.95909 30.67106,-77.481932 48.1874,-68.05143 20.11611,13.95903 -30.67107,77.48186 -48.1874,68.05143 z"
       style="opacity:1;fill:#0095ad;fill-opacity:1;stroke:#000000;stroke-width:4.40531445;stroke-linecap:round;stroke-linejoin:round;stroke-miterlimit:4;stroke-dasharray:none;stroke-dashoffset:0;stroke-opacity:1"
       inkscape:transform-center-x="-18.935525"
       inkscape:transform-center-y="-34.663458" />
    <g
       id="g1475"
       transform="matrix(-0.30873951,0.5483949,-0.5483949,-0.30873951,170.03702,181.435)"
       inkscape:transform-center-x="28.251251"
       inkscape:transform-center-y="-33.622083">
      <path
         style="opacity:1;fill:#0095ad;fill-opacity:1;stroke:#000000;stroke-width:7;stroke-linecap:round;stroke-linejoin:round;stroke-miterlimit:4;stroke-dasharray:none;stroke-dashoffset:0;stroke-opacity:1"
         d="m 70.985323,117.63027 c 32.501577,2.6898 -11.96716,135.0406 -38.45228,135.8403 -32.50165024,-2.68981 11.967171,-135.0406 38.45228,-135.8403 z"
         id="path3229"
         inkscape:connector-curvature="0"
         sodipodi:nodetypes="ccc"
         inkscape:export-filename="/home/siqueira/Pictures/flusp.png"
         inkscape:export-xdpi="293.84"
         inkscape:export-ydpi="293.84" />
      <path
         style="opacity:1;fill:#0095ad;fill-opacity:1;stroke:#00ffff;stroke-width:6.99999905;stroke-linecap:round;stroke-linejoin:round;stroke-miterlimit:4;stroke-dasharray:none;stroke-dashoffset:0;stroke-opacity:1"
         d="m 38.201522,177.67127 a 6.5413554,15.880895 17.315938 0 0 -5.219708,16.4827 6.5413554,15.880895 17.315938 0 0 7.166708,7.3503 6.5413554,15.880895 17.315938 0 0 6.94355,-12.1129 6.5413554,15.880895 17.315938 0 1 -3.225699,3.8466 6.5413554,15.880895 17.315938 0 1 -7.16656,-7.3502 6.5413554,15.880895 17.315938 0 1 1.501709,-8.2165 z"
         id="path3245"
         inkscape:connector-curvature="0" />
      <ellipse
         ry="15.063966"
         rx="11.037396"
         transform="matrix(0.7689674,-0.63928799,-0.04614682,0.99893467,0,0)"
         style="opacity:1;fill:#0095ad;fill-opacity:1;stroke:none;stroke-width:8.14478493;stroke-linecap:round;stroke-linejoin:round;stroke-miterlimit:4;stroke-dasharray:none;stroke-dashoffset:0;stroke-opacity:1"
         id="ellipse3247"
         cx="68.335228"
         cy="229.01965" />
      <path
         inkscape:connector-curvature="0"
         id="path3251"
         d="m 46.008513,159.36787 a 6.5413554,15.880895 17.315938 0 0 -5.21971,16.4827 6.5413554,15.880895 17.315938 0 0 7.16671,7.3503 6.5413554,15.880895 17.315938 0 0 6.943551,-12.1129 6.5413554,15.880895 17.315938 0 1 -3.2257,3.8466 6.5413554,15.880895 17.315938 0 1 -7.166562,-7.3502 6.5413554,15.880895 17.315938 0 1 1.501711,-8.2165 z"
         style="opacity:1;fill:#0095ad;fill-opacity:1;stroke:#00ffff;stroke-width:6.99999905;stroke-linecap:round;stroke-linejoin:round;stroke-miterlimit:4;stroke-dasharray:none;stroke-dashoffset:0;stroke-opacity:1" />
      <ellipse
         cy="216.7218"
         cx="77.749779"
         id="ellipse3253"
         style="opacity:1;fill:#0095ad;fill-opacity:1;stroke:none;stroke-width:8.14478493;stroke-linecap:round;stroke-linejoin:round;stroke-miterlimit:4;stroke-dasharray:none;stroke-dashoffset:0;stroke-opacity:1"
         transform="matrix(0.7689674,-0.63928799,-0.04614682,0.99893467,0,0)"
         rx="11.037396"
         ry="15.063966" />
      <path
         inkscape:connector-curvature="0"
         id="path3257"
         d="m 31.112712,206.76477 a 6.5414065,15.880773 10.932393 0 0 -3.35481,16.96071 6.5414065,15.880773 10.932393 0 0 7.9395,6.50819 6.5414065,15.880773 10.932393 0 0 5.5538,-12.80959 6.5414065,15.880773 10.932393 0 1 -2.778038,4.18129 6.5414065,15.880773 10.932393 0 1 -7.939331,-6.50801 6.5414065,15.880773 10.932393 0 1 0.578879,-8.33259 z"
         style="opacity:1;fill:#0095ad;fill-opacity:1;stroke:#00ffff;stroke-width:6.99999952;stroke-linecap:round;stroke-linejoin:round;stroke-miterlimit:4;stroke-dasharray:none;stroke-dashoffset:0;stroke-opacity:1" />
      <ellipse
         cy="235.37549"
         cx="29.352129"
         id="ellipse3259"
         style="opacity:1;fill:#0095ad;fill-opacity:1;stroke:none;stroke-width:8.14471912;stroke-linecap:round;stroke-linejoin:round;stroke-miterlimit:4;stroke-dasharray:none;stroke-dashoffset:0;stroke-opacity:1"
         transform="matrix(0.69313697,-0.7208059,0.06520044,0.99787219,0,0)"
         rx="11.037216"
         ry="15.063972" />
      <path
         style="opacity:1;fill:#0095ad;fill-opacity:1;stroke:#00ffff;stroke-width:6.99999905;stroke-linecap:round;stroke-linejoin:round;stroke-miterlimit:4;stroke-dasharray:none;stroke-dashoffset:0;stroke-opacity:1"
         d="m 35.240223,219.66137 a 6.5413554,15.880895 17.315938 0 0 -5.219711,16.4827 6.5413554,15.880895 17.315938 0 0 7.166711,7.35031 6.5413554,15.880895 17.315938 0 0 6.94355,-12.11292 6.5413554,15.880895 17.315938 0 1 -3.225699,3.84662 6.5413554,15.880895 17.315938 0 1 -7.166563,-7.35021 6.5413554,15.880895 17.315938 0 1 1.501712,-8.2165 z"
         id="path3263"
         inkscape:connector-curvature="0" />
      <ellipse
         ry="15.063966"
         rx="11.037396"
         transform="matrix(0.7689674,-0.63928799,-0.04614682,0.99893467,0,0)"
         style="opacity:1;fill:#0095ad;fill-opacity:1;stroke:none;stroke-width:8.14478493;stroke-linecap:round;stroke-linejoin:round;stroke-miterlimit:4;stroke-dasharray:none;stroke-dashoffset:0;stroke-opacity:1"
         id="ellipse3265"
         cx="66.953758"
         cy="270.17041" />
      <path
         inkscape:connector-curvature="0"
         id="path3269"
         d="m 41.162794,214.27797 a 6.5413554,15.880895 17.315938 0 0 -5.219711,16.4827 6.5413554,15.880895 17.315938 0 0 7.166711,7.35031 6.5413554,15.880895 17.315938 0 0 6.94355,-12.11292 6.5413554,15.880895 17.315938 0 1 -3.225702,3.84662 6.5413554,15.880895 17.315938 0 1 -7.16656,-7.3502 6.5413554,15.880895 17.315938 0 1 1.501712,-8.21651 z"
         style="opacity:1;fill:#0095ad;fill-opacity:1;stroke:#00ffff;stroke-width:6.99999905;stroke-linecap:round;stroke-linejoin:round;stroke-miterlimit:4;stroke-dasharray:none;stroke-dashoffset:0;stroke-opacity:1" />
      <ellipse
         cy="269.69193"
         cx="74.626999"
         id="ellipse3271"
         style="opacity:1;fill:#0095ad;fill-opacity:1;stroke:none;stroke-width:8.14478493;stroke-linecap:round;stroke-linejoin:round;stroke-miterlimit:4;stroke-dasharray:none;stroke-dashoffset:0;stroke-opacity:1"
         transform="matrix(0.7689674,-0.63928799,-0.04614682,0.99893467,0,0)"
         rx="11.037396"
         ry="15.063966" />
      <path
         inkscape:connector-curvature="0"
         id="path3275"
         d="m 39.009194,191.39877 a 6.5413554,15.880895 17.315938 0 0 -5.219711,16.4827 6.5413554,15.880895 17.315938 0 0 7.166711,7.3503 6.5413554,15.880895 17.315938 0 0 6.943548,-12.1129 6.5413554,15.880895 17.315938 0 1 -3.2257,3.8466 6.5413554,15.880895 17.315938 0 1 -7.166559,-7.3502 6.5413554,15.880895 17.315938 0 1 1.501711,-8.2165 z"
         style="opacity:1;fill:#0095ad;fill-opacity:1;stroke:#00ffff;stroke-width:6.99999905;stroke-linecap:round;stroke-linejoin:round;stroke-miterlimit:4;stroke-dasharray:none;stroke-dashoffset:0;stroke-opacity:1" />
      <ellipse
         cy="244.00967"
         cx="70.285141"
         id="ellipse3277"
         style="opacity:1;fill:#0095ad;fill-opacity:1;stroke:none;stroke-width:8.14478493;stroke-linecap:round;stroke-linejoin:round;stroke-miterlimit:4;stroke-dasharray:none;stroke-dashoffset:0;stroke-opacity:1"
         transform="matrix(0.7689674,-0.63928799,-0.04614682,0.99893467,0,0)"
         rx="11.037396"
         ry="15.063966" />
      <path
         style="opacity:1;fill:#0095ad;fill-opacity:1;stroke:#00ffff;stroke-width:6.99999905;stroke-linecap:round;stroke-linejoin:round;stroke-miterlimit:4;stroke-dasharray:none;stroke-dashoffset:0;stroke-opacity:1"
         d="m 50.585064,180.36297 a 6.5413554,15.880895 17.315938 0 0 -5.21971,16.4827 6.5413554,15.880895 17.315938 0 0 7.16671,7.3503 6.5413554,15.880895 17.315938 0 0 6.943548,-12.1129 6.5413554,15.880895 17.315938 0 1 -3.2257,3.8466 6.5413554,15.880895 17.315938 0 1 -7.166559,-7.3502 6.5413554,15.880895 17.315938 0 1 1.501711,-8.2165 z"
         id="path3281"
         inkscape:connector-curvature="0" />
      <ellipse
         ry="15.063966"
         rx="11.037396"
         transform="matrix(0.7689674,-0.63928799,-0.04614682,0.99893467,0,0)"
         style="opacity:1;fill:#0095ad;fill-opacity:1;stroke:none;stroke-width:8.14478493;stroke-linecap:round;stroke-linejoin:round;stroke-miterlimit:4;stroke-dasharray:none;stroke-dashoffset:0;stroke-opacity:1"
         id="ellipse3283"
         cx="85.250694"
         cy="242.5397" />
      <path
         style="opacity:1;fill:#0095ad;fill-opacity:1;stroke:#00ffff;stroke-width:6.99999905;stroke-linecap:round;stroke-linejoin:round;stroke-miterlimit:4;stroke-dasharray:none;stroke-dashoffset:0;stroke-opacity:1"
         d="m 51.931084,196.51297 a 6.5413554,15.880895 17.315938 0 0 -5.21971,16.4827 6.5413554,15.880895 17.315938 0 0 7.16671,7.35031 6.5413554,15.880895 17.315938 0 0 6.943548,-12.11291 6.5413554,15.880895 17.315938 0 1 -3.2257,3.84659 6.5413554,15.880895 17.315938 0 1 -7.166559,-7.35019 6.5413554,15.880895 17.315938 0 1 1.501711,-8.2165 z"
         id="path3287"
         inkscape:connector-curvature="0" />
      <ellipse
         ry="15.063966"
         rx="11.037396"
         transform="matrix(0.7689674,-0.63928799,-0.04614682,0.99893467,0,0)"
         style="opacity:1;fill:#0095ad;fill-opacity:1;stroke:none;stroke-width:8.14478493;stroke-linecap:round;stroke-linejoin:round;stroke-miterlimit:4;stroke-dasharray:none;stroke-dashoffset:0;stroke-opacity:1"
         id="ellipse3289"
         cx="88.080009"
         cy="260.51758" />
      <path
         inkscape:connector-curvature="0"
         id="path3293"
         d="m 58.930504,175.51797 a 6.5413554,15.880895 17.315938 0 0 -5.219711,16.4827 6.5413554,15.880895 17.315938 0 0 7.166711,7.3503 6.5413554,15.880895 17.315938 0 0 6.94355,-12.1129 6.5413554,15.880895 17.315938 0 1 -3.225702,3.8466 6.5413554,15.880895 17.315938 0 1 -7.166559,-7.3502 6.5413554,15.880895 17.315938 0 1 1.501711,-8.2165 z"
         style="opacity:1;fill:#0095ad;fill-opacity:1;stroke:#00ffff;stroke-width:6.99999905;stroke-linecap:round;stroke-linejoin:round;stroke-miterlimit:4;stroke-dasharray:none;stroke-dashoffset:0;stroke-opacity:1" />
      <ellipse
         cy="244.71863"
         cx="96.234238"
         id="ellipse3295"
         style="opacity:1;fill:#0095ad;fill-opacity:1;stroke:none;stroke-width:8.14478493;stroke-linecap:round;stroke-linejoin:round;stroke-miterlimit:4;stroke-dasharray:none;stroke-dashoffset:0;stroke-opacity:1"
         transform="matrix(0.7689674,-0.63928799,-0.04614682,0.99893467,0,0)"
         rx="11.037396"
         ry="15.063966" />
      <path
         inkscape:connector-curvature="0"
         id="path3299"
         d="m 53.277104,146.71707 a 6.5413554,15.880895 17.315938 0 0 -5.21971,16.4827 6.5413554,15.880895 17.315938 0 0 7.16671,7.3503 6.5413554,15.880895 17.315938 0 0 6.943548,-12.1129 6.5413554,15.880895 17.315938 0 1 -3.225699,3.8466 6.5413554,15.880895 17.315938 0 1 -7.16656,-7.3502 6.5413554,15.880895 17.315938 0 1 1.501711,-8.2165 z"
         style="opacity:1;fill:#0095ad;fill-opacity:1;stroke:#00ffff;stroke-width:6.99999905;stroke-linecap:round;stroke-linejoin:round;stroke-miterlimit:4;stroke-dasharray:none;stroke-dashoffset:0;stroke-opacity:1" />
      <ellipse
         cy="209.84253"
         cx="86.78936"
         id="ellipse3301"
         style="opacity:1;fill:#0095ad;fill-opacity:1;stroke:none;stroke-width:8.14478493;stroke-linecap:round;stroke-linejoin:round;stroke-miterlimit:4;stroke-dasharray:none;stroke-dashoffset:0;stroke-opacity:1"
         transform="matrix(0.7689674,-0.63928799,-0.04614682,0.99893467,0,0)"
         rx="11.037396"
         ry="15.063966" />
      <path
         style="opacity:1;fill:#0095ad;fill-opacity:1;stroke:#00ffff;stroke-width:6.99999905;stroke-linecap:round;stroke-linejoin:round;stroke-miterlimit:4;stroke-dasharray:none;stroke-dashoffset:0;stroke-opacity:1"
         d="m 60.545664,152.63877 a 6.5413554,15.880895 17.315938 0 0 -5.219711,16.4827 6.5413554,15.880895 17.315938 0 0 7.166711,7.3503 6.5413554,15.880895 17.315938 0 0 6.94355,-12.1129 6.5413554,15.880895 17.315938 0 1 -3.2257,3.8466 6.5413554,15.880895 17.315938 0 1 -7.166562,-7.3502 6.5413554,15.880895 17.315938 0 1 1.501712,-8.2165 z"
         id="path3305"
         inkscape:connector-curvature="0" />
      <ellipse
         ry="15.063966"
         rx="11.037396"
         transform="matrix(0.7689674,-0.63928799,-0.04614682,0.99893467,0,0)"
         style="opacity:1;fill:#0095ad;fill-opacity:1;stroke:none;stroke-width:8.14478493;stroke-linecap:round;stroke-linejoin:round;stroke-miterlimit:4;stroke-dasharray:none;stroke-dashoffset:0;stroke-opacity:1"
         id="ellipse3307"
         cx="96.989182"
         cy="222.2981" />
      <path
         style="opacity:1;fill:#0095ad;fill-opacity:1;stroke:#00ffff;stroke-width:6.99999905;stroke-linecap:round;stroke-linejoin:round;stroke-miterlimit:4;stroke-dasharray:none;stroke-dashoffset:0;stroke-opacity:1"
         d="m 62.699382,132.45117 a 6.5413554,15.880895 17.315938 0 0 -5.21971,16.4827 6.5413554,15.880895 17.315938 0 0 7.16671,7.3503 6.5413554,15.880895 17.315938 0 0 6.943551,-12.1129 6.5413554,15.880895 17.315938 0 1 -3.2257,3.8466 6.5413554,15.880895 17.315938 0 1 -7.166559,-7.3502 6.5413554,15.880895 17.315938 0 1 1.501708,-8.2165 z"
         id="path3311"
         inkscape:connector-curvature="0" />
      <ellipse
         ry="15.063966"
         rx="11.037396"
         transform="matrix(0.7689674,-0.63928799,-0.04614682,0.99893467,0,0)"
         style="opacity:1;fill:#0095ad;fill-opacity:1;stroke:none;stroke-width:8.14478493;stroke-linecap:round;stroke-linejoin:round;stroke-miterlimit:4;stroke-dasharray:none;stroke-dashoffset:0;stroke-opacity:1"
         id="ellipse3313"
         cx="98.640625"
         cy="203.14587" />
      <path
         style="opacity:1;fill:#0095ad;fill-opacity:1;stroke:#00ffff;stroke-width:6.99999952;stroke-linecap:round;stroke-linejoin:round;stroke-miterlimit:4;stroke-dasharray:none;stroke-dashoffset:0;stroke-opacity:1"
         d="m 60.199393,163.03957 a 6.5414345,15.880705 4.8832187 0 0 -1.54889,17.2197 6.5414345,15.880705 4.8832187 0 0 8.581121,5.6356 6.5414345,15.880705 4.8832187 0 0 4.173058,-13.3234 6.5414345,15.880705 4.8832187 0 1 -2.32197,4.4507 6.5414345,15.880705 4.8832187 0 1 -8.58094,-5.6355 6.5414345,15.880705 4.8832187 0 1 -0.302379,-8.3471 z"
         id="path3359"
         inkscape:connector-curvature="0" />
      <ellipse
         ry="15.064026"
         rx="11.037045"
         transform="matrix(0.61333241,-0.78982489,0.16998927,0.98544591,0,0)"
         style="opacity:1;fill:#0095ad;fill-opacity:1;stroke:none;stroke-width:8.14467144;stroke-linecap:round;stroke-linejoin:round;stroke-miterlimit:4;stroke-dasharray:none;stroke-dashoffset:0;stroke-opacity:1"
         id="ellipse3361"
         cx="48.362881"
         cy="210.73653" />
      <path
         inkscape:connector-curvature="0"
         id="path3365"
         d="m 62.898053,143.70877 a 15.88069,6.5414403 88.359426 0 0 0.417459,17.2842 15.88069,6.5414403 88.359426 0 0 9.165821,4.6245 15.88069,6.5414403 88.359426 0 0 2.632398,-13.7111 15.88069,6.5414403 88.359426 0 1 -1.801297,4.6856 15.88069,6.5414403 88.359426 0 1 -9.16563,-4.6244 15.88069,6.5414403 88.359426 0 1 -1.248751,-8.2588 z"
         style="opacity:1;fill:#0095ad;fill-opacity:1;stroke:#00ffff;stroke-width:6.99999952;stroke-linecap:round;stroke-linejoin:round;stroke-miterlimit:4;stroke-dasharray:none;stroke-dashoffset:0;stroke-opacity:1" />
      <ellipse
         cy="184.8392"
         cx="32.657032"
         id="ellipse3367"
         style="opacity:1;fill:#0095ad;fill-opacity:1;stroke:none;stroke-width:8.14463806;stroke-linecap:round;stroke-linejoin:round;stroke-miterlimit:4;stroke-dasharray:none;stroke-dashoffset:0;stroke-opacity:1"
         transform="matrix(0.51963937,-0.8543857,0.28084256,0.95975385,0,0)"
         rx="11.036873"
         ry="15.064137" />
    </g>
    <path
       inkscape:export-ydpi="293.84"
       inkscape:export-xdpi="293.84"
       inkscape:export-filename="/home/siqueira/Pictures/flusp.png"
       sodipodi:nodetypes="cczac"
       inkscape:connector-curvature="0"
       id="path3227"
       d="m 89.217995,147.00037 h 33.984955 c 37.26104,-12.65641 37.54569,55.68713 16.53215,79.93625 -21.01359,24.24918 -59.216418,19.74361 -73.997517,0 -16.644152,-22.23224 -8.472231,-90.81549 23.480412,-79.93625 z"
       style="opacity:1;fill:#0095ad;fill-opacity:1;stroke:#000000;stroke-width:4.40531445;stroke-linecap:round;stroke-linejoin:round;stroke-miterlimit:4;stroke-dasharray:none;stroke-dashoffset:0;stroke-opacity:1" />
    <path
       inkscape:export-ydpi="293.84"
       inkscape:export-xdpi="293.84"
       inkscape:export-filename="/home/siqueira/Pictures/flusp.png"
       sodipodi:nodetypes="sscccccsscs"
       inkscape:connector-curvature="0"
       id="path3231"
       d="m 161.83578,93.270508 c 1.15186,10.349152 -0.14895,28.258202 -3.23786,38.707042 -5.44126,18.40591 -16.43109,26.1312 -29.33713,17.74788 -4.89894,7.97337 -10.10062,3.43955 -13.0196,0 -3.19006,6.8395 -9.40532,5.17618 -13.0196,0 -2.00545,4.58965 -7.422558,7.18639 -13.01968,0 -2.510979,5.98494 -10.240204,5.71911 -13.019612,0 -18.923492,2.25741 -14.852288,-4.1157 -17.351669,-16.61993 -0.31571,-1.57943 -0.0523,-12.1778 -0.241437,-13.81997 C 58.581194,110.53487 47.633308,106.58903 47.487466,99.538138 48.817065,21.201448 155.70968,38.22931 161.83578,93.270508 Z"
       style="opacity:1;fill:#0095ad;fill-opacity:1;stroke:#000000;stroke-width:4.40531445;stroke-linecap:round;stroke-linejoin:round;stroke-miterlimit:4;stroke-dasharray:none;stroke-dashoffset:0;stroke-opacity:1" />
    <path
       inkscape:connector-curvature="0"
       id="path3233"
       d="m 64.389249,121.57264 a 15.094561,15.092333 0 0 0 -8.965414,13.7712 15.094561,15.092333 0 0 0 15.094822,15.0926 15.094561,15.092333 0 0 0 12.837948,-7.19029 15.094561,15.092333 0 0 1 -6.129416,1.32103 15.094561,15.092333 0 0 1 -15.094512,-15.09229 15.094561,15.092333 0 0 1 2.256572,-7.90225 z"
       style="opacity:1;fill:#0095ad;fill-opacity:1;stroke:#000000;stroke-width:4.40531445;stroke-linecap:round;stroke-linejoin:round;stroke-miterlimit:4;stroke-dasharray:none;stroke-dashoffset:0;stroke-opacity:1" />
    <ellipse
       cy="133.5473"
       cx="72.674896"
       id="circle3235"
       style="opacity:1;fill:#0095ad;fill-opacity:1;stroke:none;stroke-width:4.40531445;stroke-linecap:round;stroke-linejoin:round;stroke-miterlimit:4;stroke-dasharray:none;stroke-dashoffset:0;stroke-opacity:1"
       rx="16.412344"
       ry="16.409922" />
    <path
       style="opacity:1;fill:#00c5d4;fill-opacity:1;stroke:#00ffff;stroke-width:4.40531445;stroke-linecap:round;stroke-linejoin:round;stroke-miterlimit:4;stroke-dasharray:none;stroke-dashoffset:0;stroke-opacity:1"
       d="m 73.141323,137.20597 a 11.194383,11.186296 83.543684 0 0 -0.130208,12.18699 11.194383,11.186296 83.543684 0 0 15.442168,3.44287 11.194383,11.186296 83.543684 0 0 5.169139,-9.60805 11.194383,11.186296 83.543684 0 1 -3.307856,3.26528 11.194383,11.186296 83.543684 0 1 -15.441847,-3.44275 11.194383,11.186296 83.543684 0 1 -1.731396,-5.84434 z"
       id="path3239"
       inkscape:connector-curvature="0" />
    <ellipse
       ry="12.169983"
       rx="12.164571"
       transform="matrix(0.84376223,-0.53671716,0.53623679,0.8440676,0,0)"
       style="opacity:1;fill:#0095ad;fill-opacity:1;stroke:none;stroke-width:4.40531492;stroke-linecap:round;stroke-linejoin:round;stroke-miterlimit:4;stroke-dasharray:none;stroke-dashoffset:0;stroke-opacity:1"
       id="ellipse3241"
       cx="-5.6974773"
       cy="163.90613" />
    <ellipse
       inkscape:export-ydpi="293.84"
       inkscape:export-xdpi="293.84"
       inkscape:export-filename="/home/siqueira/Pictures/flusp.png"
       ry="31.91387"
       rx="31.240898"
       cy="80.646645"
       cx="95.450035"
       id="ellipse3317"
       style="opacity:1;fill:#ffb500;fill-opacity:1;stroke:none;stroke-width:2.5173223;stroke-linecap:round;stroke-linejoin:round;stroke-miterlimit:4;stroke-dasharray:none;stroke-dashoffset:0;stroke-opacity:1" />
    <ellipse
       ry="23.945248"
       rx="23.948784"
       inkscape:export-ydpi="293.84"
       inkscape:export-xdpi="293.84"
       inkscape:export-filename="/home/siqueira/Pictures/flusp.png"
       style="opacity:1;fill:#ffffff;fill-opacity:1;stroke:none;stroke-width:2.5173223;stroke-linecap:round;stroke-linejoin:round;stroke-miterlimit:4;stroke-dasharray:none;stroke-dashoffset:0;stroke-opacity:1"
       id="ellipse3319"
       cx="92.231071"
       cy="83.187546" />
    <path
       inkscape:export-ydpi="293.84"
       inkscape:export-xdpi="293.84"
       inkscape:export-filename="/home/siqueira/Pictures/flusp.png"
       style="opacity:0.7;fill:#cccccc;fill-opacity:1;stroke:none;stroke-width:0.16651039px;stroke-linecap:butt;stroke-linejoin:miter;stroke-opacity:1"
       d="m 109.71796,75.873601 c 8.17809,10.015107 -1.31693,25.379399 -15.113511,25.838059 3.72438,-9.057522 7.955181,-19.465142 15.113511,-25.838059 z"
       id="path3323"
       inkscape:connector-curvature="0"
       sodipodi:nodetypes="ccc" />
    <path
       inkscape:export-ydpi="293.84"
       inkscape:export-xdpi="293.84"
       inkscape:export-filename="/home/siqueira/Pictures/flusp.png"
       sodipodi:nodetypes="ccc"
       inkscape:connector-curvature="0"
       id="path3325"
       d="m 109.35855,75.873601 c 5.77302,11.698377 -1.85179,25.753789 -15.113493,25.838059 3.724362,-9.057522 7.955173,-19.465142 15.113493,-25.838059 z"
       style="fill:#9c9c9c;stroke:none;stroke-width:0.16651039px;stroke-linecap:butt;stroke-linejoin:miter;stroke-opacity:1" />
    <ellipse
       ry="17.847023"
       rx="17.849661"
       inkscape:export-ydpi="293.84"
       inkscape:export-xdpi="293.84"
       inkscape:export-filename="/home/siqueira/Pictures/flusp.png"
       cy="83.187546"
       cx="92.231071"
       id="ellipse3327"
       style="opacity:1;fill:#e37404;fill-opacity:1;stroke:#000000;stroke-width:1.88799191;stroke-linecap:round;stroke-linejoin:round;stroke-miterlimit:4;stroke-dasharray:none;stroke-dashoffset:0;stroke-opacity:1" />
    <ellipse
       inkscape:export-ydpi="293.84"
       inkscape:export-xdpi="293.84"
       inkscape:export-filename="/home/siqueira/Pictures/flusp.png"
       ry="13.316395"
       rx="12.962049"
       cy="83.187546"
       cx="92.231071"
       id="ellipse3329"
       style="opacity:1;fill:#000000;fill-opacity:1;stroke:none;stroke-width:2.5173223;stroke-linecap:round;stroke-linejoin:round;stroke-miterlimit:4;stroke-dasharray:none;stroke-dashoffset:0;stroke-opacity:1" />
    <path
       inkscape:export-ydpi="293.84"
       inkscape:export-xdpi="293.84"
       inkscape:export-filename="/home/siqueira/Pictures/flusp.png"
       sodipodi:nodetypes="cscc"
       inkscape:connector-curvature="0"
       id="path3331"
       d="m 102.89895,78.437117 c -0.79372,0.893901 -1.07025,-0.971184 -3.007434,-3.038157 -1.990118,-2.123424 -4.102094,-1.90341 -3.633508,-3.241556 1.281785,-2.011781 7.810112,4.4539 6.640942,6.279713 z"
       style="opacity:1;fill:#ffffff;fill-opacity:1;stroke:none;stroke-width:2.5173223;stroke-linecap:round;stroke-linejoin:round;stroke-miterlimit:4;stroke-dasharray:none;stroke-dashoffset:0;stroke-opacity:1" />
    <path
       inkscape:export-ydpi="293.84"
       inkscape:export-xdpi="293.84"
       inkscape:export-filename="/home/siqueira/Pictures/flusp.png"
       sodipodi:nodetypes="cc"
       inkscape:connector-curvature="0"
       id="path3333"
       d="m 92.12566,242.60229 c 12.41042,-3.32488 17.38014,14.1692 4.707062,17.56443"
       style="fill:none;stroke:#693a20;stroke-width:4.40531445;stroke-linecap:butt;stroke-linejoin:miter;stroke-miterlimit:4;stroke-dasharray:none;stroke-opacity:1" />
    <path
       inkscape:export-ydpi="293.84"
       inkscape:export-xdpi="293.84"
       inkscape:export-filename="/home/siqueira/Pictures/flusp.png"
       style="fill:none;stroke:#693a20;stroke-width:4.40531445;stroke-linecap:butt;stroke-linejoin:miter;stroke-miterlimit:4;stroke-dasharray:none;stroke-opacity:1"
       d="m 112.83869,242.60229 c 12.41041,-3.32488 17.38013,14.1692 4.70702,17.56443"
       id="path3335"
       inkscape:connector-curvature="0"
       sodipodi:nodetypes="cc" />
    <path
       inkscape:export-ydpi="293.84"
       inkscape:export-xdpi="293.84"
       inkscape:export-filename="/home/siqueira/Pictures/flusp.png"
       sodipodi:nodetypes="cc"
       inkscape:connector-curvature="0"
       id="path3337"
       d="m 84.526423,96.136158 c 7.856514,4.942132 22.184157,1.43765 22.811127,-13.37371"
       style="fill:none;stroke:#ffffff;stroke-width:2.83198786;stroke-linecap:round;stroke-linejoin:round;stroke-miterlimit:4;stroke-dasharray:none;stroke-opacity:1" />
    <path
       inkscape:export-ydpi="293.84"
       inkscape:export-xdpi="293.84"
       inkscape:export-filename="/home/siqueira/Pictures/flusp.png"
       sodipodi:nodetypes="cc"
       inkscape:connector-curvature="0"
       id="path3339"
       d="m 59.04075,101.00838 c 1.194961,6.74133 -0.363123,15.9113 4.235489,19.64984"
       style="fill:none;stroke:#000000;stroke-width:2.51732254;stroke-linecap:round;stroke-linejoin:round;stroke-miterlimit:4;stroke-dasharray:none;stroke-opacity:1" />
    <path
       inkscape:connector-curvature="0"
       id="path3341"
       d="m 87.207158,145.65039 a 11.1945,11.18618 71.95293 0 0 1.947111,12.03117 11.1945,11.18618 71.95293 0 0 15.802971,0.76363 11.1945,11.18618 71.95293 0 0 3.45744,-10.34777 11.1945,11.18618 71.95293 0 1 -2.70349,3.78076 11.1945,11.18618 71.95293 0 1 -15.802643,-0.76357 11.1945,11.18618 71.95293 0 1 -2.701389,-5.46422 z"
       style="opacity:1;fill:#0095ad;fill-opacity:1;stroke:#00ffff;stroke-width:4.40531445;stroke-linecap:round;stroke-linejoin:round;stroke-miterlimit:4;stroke-dasharray:none;stroke-dashoffset:0;stroke-opacity:1" />
    <ellipse
       cy="175.32114"
       cx="-27.184435"
       id="ellipse3343"
       style="opacity:1;fill:#0095ad;fill-opacity:1;stroke:none;stroke-width:4.4053154;stroke-linecap:round;stroke-linejoin:round;stroke-miterlimit:4;stroke-dasharray:none;stroke-dashoffset:0;stroke-opacity:1"
       transform="matrix(0.74005704,-0.67254411,0.67213255,0.74043085,0,0)"
       rx="12.164274"
       ry="12.17028" />
    <path
       inkscape:connector-curvature="0"
       id="path3347"
       d="m 120.11894,144.02741 a 11.194424,11.186255 78.038673 0 0 0.85108,12.15797 11.194424,11.186255 78.038673 0 0 15.66918,2.18919 11.194424,11.186255 78.038673 0 0 4.37909,-9.99276 11.194424,11.186255 78.038673 0 1 -3.03433,3.52085 11.194424,11.186255 78.038673 0 1 -15.66886,-2.18918 11.194424,11.186255 78.038673 0 1 -2.19616,-5.68607 z"
       style="opacity:1;fill:#0095ad;fill-opacity:1;stroke:#00ffff;stroke-width:4.40531445;stroke-linecap:round;stroke-linejoin:round;stroke-miterlimit:4;stroke-dasharray:none;stroke-dashoffset:0;stroke-opacity:1" />
    <ellipse
       cy="196.20769"
       cx="15.251349"
       id="ellipse3349"
       style="opacity:1;fill:#0095ad;fill-opacity:1;stroke:none;stroke-width:4.40531492;stroke-linecap:round;stroke-linejoin:round;stroke-miterlimit:4;stroke-dasharray:none;stroke-dashoffset:0;stroke-opacity:1"
       transform="matrix(0.79783721,-0.60287295,0.60242535,0.79817523,0,0)"
       rx="12.164433"
       ry="12.17012" />
    <path
       style="opacity:1;fill:#0095ad;fill-opacity:1;stroke:#00ffff;stroke-width:4.40531445;stroke-linecap:round;stroke-linejoin:round;stroke-miterlimit:4;stroke-dasharray:none;stroke-dashoffset:0;stroke-opacity:1"
       d="m 105.8595,149.01409 a 11.194804,11.185877 56.742048 0 0 4.72133,11.23639 11.194804,11.185877 56.742048 0 0 15.53962,-2.97233 11.194804,11.185877 56.742048 0 0 0.92756,-10.87043 11.194804,11.185877 56.742048 0 1 -1.73878,4.31029 11.194804,11.185877 56.742048 0 1 -15.53929,2.97221 11.194804,11.185877 56.742048 0 1 -3.91044,-4.67613 z"
       id="path3353"
       inkscape:connector-curvature="0" />
    <ellipse
       ry="12.170699"
       rx="12.163857"
       transform="matrix(0.56120668,-0.8276757,0.82735806,0.56167485,0,0)"
       style="opacity:1;fill:#0095ad;fill-opacity:1;stroke:none;stroke-width:4.40531492;stroke-linecap:round;stroke-linejoin:round;stroke-miterlimit:4;stroke-dasharray:none;stroke-dashoffset:0;stroke-opacity:1"
       id="ellipse3355"
       cx="-57.68858"
       cy="180.12628" />
    <path
       inkscape:export-ydpi="293.84"
       inkscape:export-xdpi="293.84"
       inkscape:export-filename="/home/siqueira/Pictures/flusp.png"
       style="fill:none;stroke:#693a20;stroke-width:4.40531445;stroke-linecap:butt;stroke-linejoin:miter;stroke-miterlimit:4;stroke-dasharray:none;stroke-opacity:1"
       d="m 94.992852,243.3342 c 9.080708,-9.08803 22.138948,3.57152 12.866008,12.85189"
       id="path3371"
       inkscape:connector-curvature="0"
       sodipodi:nodetypes="cc" />
    <path
       inkscape:export-ydpi="293.84"
       inkscape:export-xdpi="293.84"
       inkscape:export-filename="/home/siqueira/Pictures/flusp.png"
       sodipodi:nodetypes="cc"
       inkscape:connector-curvature="0"
       id="path3373"
       d="m 116.66418,243.3342 c 9.08072,-9.08803 22.13897,3.57152 12.86601,12.85189"
       style="fill:none;stroke:#693a20;stroke-width:4.40531445;stroke-linecap:butt;stroke-linejoin:miter;stroke-miterlimit:4;stroke-dasharray:none;stroke-opacity:1" />
    <g
       id="g5182"
       transform="matrix(0.62933064,0,0,0.62933064,20.562114,79.146207)">
      <path
         style="opacity:1;fill:#382810;fill-opacity:1;stroke:#000000;stroke-width:4;stroke-linecap:round;stroke-linejoin:round;stroke-miterlimit:4;stroke-dasharray:none;stroke-dashoffset:0;stroke-opacity:1"
         d="m 4.3358308,45.519969 c 49.3004822,-0.7878 60.2016012,-10.674005 60.2016012,35.7626 -41.43897,22.704201 -65.06947924,-1.0014 -65.27179924,-30.6931 0,-2.8085 2.26130004,-5.0695 5.07019804,-5.0695 z"
         id="path3225"
         inkscape:connector-curvature="0"
         sodipodi:nodetypes="cccc"
         inkscape:export-filename="/home/siqueira/Pictures/flusp.png"
         inkscape:export-xdpi="293.84"
         inkscape:export-ydpi="293.84" />
      <path
         style="opacity:1;fill:#382810;fill-opacity:1;stroke:#000000;stroke-width:4;stroke-linecap:round;stroke-linejoin:round;stroke-miterlimit:4;stroke-dasharray:none;stroke-dashoffset:0;stroke-opacity:1"
         d="m 52.889273,10.254565 c 19.149229,39.003604 7.13232,65.662204 -34.11169,55.106204 -10.0282792,-2.7957 -18.62004124,-16.2499 -25.2689482,-12.61 -8.1677298,4.4715 -12.7992698,28.2956 -12.7992698,28.2956 -0.84493,2.2453 -4.33081,-1.9312 -4.33081,-4.3301 -6.42088,-63.762404 51.371028,-64.738904 76.510718,-66.461704 z"
         id="path3321"
         inkscape:connector-curvature="0"
         sodipodi:nodetypes="ccsscc"
         inkscape:export-filename="/home/siqueira/Pictures/flusp.png"
         inkscape:export-xdpi="293.84"
         inkscape:export-ydpi="293.84" />
    </g>
  </g>
</svg>
